{
    "page": 1,
    "total_results": 155,
    "total_pages": 8,
    "results": [
        {
            "original_name": "Heroes",
            "genre_ids": [
                18,
                10765
            ],
            "name": "Heroes",
            "popularity": 25.159,
            "origin_country": [
                "US"
            ],
            "vote_count": 773,
            "first_air_date": "2006-09-25",
            "backdrop_path": "/zDS4c2swaefEvPYiQLwV0e2Gprp.jpg",
            "original_language": "en",
            "id": 1639,
            "vote_average": 7.1,
            "overview": "Common people discover that they have super powers. Their lives intertwine as a devastating event must be prevented.",
            "poster_path": "/ubprZT6mkS9ExXxTSNu25CkS9nf.jpg"
        },
        {
            "original_name": "Hogan's Heroes",
            "id": 4068,
            "name": "Hogan's Heroes",
            "popularity": 13.011,
            "vote_count": 58,
            "vote_average": 7.5,
            "first_air_date": "1965-09-17",
            "poster_path": "/AkwbrlycZPQ97NtS8EIDyakL0my.jpg",
            "genre_ids": [
                10768,
                35
            ],
            "original_language": "en",
            "backdrop_path": "/a97r87bua1GpyniS90OL8tPUe12.jpg",
            "overview": "Hogan's Heroes is an American television sitcom that ran for 168 episodes from September 17, 1965, to July 4, 1971, on the CBS network. The show was set in a German prisoner of war camp during World War II. Bob Crane starred as Colonel Robert E. Hogan, coordinating an international crew of Allied prisoners running a Special Operations group from the camp. Werner Klemperer played Colonel Wilhelm Klink, the commandant of the camp, and John Banner was the inept sergeant-of-the-guard, Hans Schultz.\n\nThe series was popular during its six-season run. In 2013, creators Bernard Fein through his estate and Albert S. Ruddy acquired the sequel and other separate rights to Hogan's Heroes from Mark Cuban through arbitration and a movie based on the show has been planned.",
            "origin_country": [
                "US"
            ]
        },
        {
            "original_name": "Heroes Reborn",
            "id": 60858,
            "name": "Heroes Reborn",
            "popularity": 9.228,
            "vote_count": 164,
            "vote_average": 5.9,
            "first_air_date": "2015-09-24",
            "poster_path": "/x9WXf6vrHli3EO6UymmYyxvwVLL.jpg",
            "genre_ids": [
                10765
            ],
            "original_language": "en",
            "backdrop_path": "/wlyojNIEbQwWUlA1ekhxiQT3zcF.jpg",
            "overview": "The supernatural phenomenon begins again with a fresh crop of inspiring heroes who take on the ultimate struggle between those with extraordinary abilities and those with nefarious motives to hunt and harness their powers. Epic adventures await these newly empowered allies as they cross paths with some of the original characters, unlocking the mysterious fate of the universe and their place within it.",
            "origin_country": [
                "US"
            ]
        },
        {
            "original_name": "The Avengers: Earth's Mightiest Heroes",
            "genre_ids": [
                16,
                10751,
                10759,
                10765
            ],
            "name": "The Avengers: Earth's Mightiest Heroes",
            "popularity": 11.187,
            "origin_country": [
                "US"
            ],
            "vote_count": 76,
            "first_air_date": "2010-10-20",
            "backdrop_path": "/fgT2f31gPKMiache79Bnb6kbJCZ.jpg",
            "original_language": "en",
            "id": 33623,
            "vote_average": 7.9,
            "overview": "When the powers of a single hero are not enough to save the world, the world’s greatest heroes—Iron Man, Thor, Captain America, The Hulk, Ant-Man/Giant Man and Wasp—assemble to form the Avengers.",
            "poster_path": "/eLqsNPqt2Hd3wLmorBjK5gPV9Ks.jpg"
        },
        {
            "original_name": "Rio Heroes",
            "id": 77448,
            "name": "Rio Heroes",
            "popularity": 1.849,
            "vote_count": 0,
            "vote_average": 0,
            "first_air_date": "2018-02-24",
            "poster_path": "/6QqB9WxeV9htZTr4LQ9VThIrUNh.jpg",
            "genre_ids": [],
            "original_language": "pt",
            "backdrop_path": "/xNinfGS2HUcn5zGe9OwnNFQGJBj.jpg",
            "overview": "The stories of a group of fighters who are part of a tough competition of Mixed Martial Arts where anything goes.",
            "origin_country": [
                "BR"
            ]
        },
        {
            "original_name": "Fantastic Four: World's Greatest Heroes",
            "genre_ids": [
                16,
                10759
            ],
            "name": "Fantastic Four: World's Greatest Heroes",
            "popularity": 4.991,
            "origin_country": [
                "CA",
                "FR",
                "US"
            ],
            "vote_count": 10,
            "first_air_date": "2006-09-02",
            "backdrop_path": "/vuGpFkMiKhdyPRdY2Ag89dlS9vB.jpg",
            "original_language": "en",
            "id": 132,
            "vote_average": 7.7,
            "overview": "Fantastic Four: World's Greatest Heroes is an animated television series based on the Marvel Comics' Fantastic Four comic book series and the movie itself. The series is the team's fourth foray into animation, and combines two-dimensional anime-style art and three-dimensional computer animation produced by the France-based animation company MoonScoop, and is also produced by MoonScoop division Taffy Entertainment. All in collaboration with Cartoon Network. In the United States, the show suffered an erratic airing schedule on Cartoon Network, having premiered as part of Toonami on September 2, 2006 but only running for 8 of the season's 26 episodes before being pulled without explanation. It returned to the network starting June 9, 2007, shortly before the release of the film Fantastic Four: Rise of the Silver Surfer, but again, only nine further episodes were aired, leaving nine installments unaired in the USA. The show aired on Boomerang for a brief time before moving to the Nicktoons Network to air the final episodes. Episodes unaired in the US began airing on the Nicktoons Network in the winter of 2009.\n\nIt is distributed in the USA by 20th Century Fox and 20th Television, and in other countries by Warner Bros. Television Distribution.",
            "poster_path": "/nrHp4SsRnwBl9vWIL0v4vl4ZlmZ.jpg"
        },
        {
            "original_name": "OK K.O.! Let's Be Heroes",
            "id": 72468,
            "name": "OK K.O.! Let's Be Heroes",
            "popularity": 6.733,
            "vote_count": 7,
            "vote_average": 7.7,
            "first_air_date": "2017-08-01",
            "poster_path": "/bIFnNqZGdahoiGnk6MRkXLbZufS.jpg",
            "genre_ids": [
                16
            ],
            "original_language": "en",
            "backdrop_path": "/fc8CGrZ4cWLdBArzlGQDihURsN5.jpg",
            "overview": "Animated comedy set in the futuristic year of 201X, where the world is populated by video game and manga-esque characters.",
            "origin_country": [
                "US"
            ]
        },
        {
            "original_name": "Higglytown Heroes",
            "id": 552,
            "name": "Higglytown Heroes",
            "popularity": 6.147,
            "vote_count": 1,
            "vote_average": 6,
            "first_air_date": "2004-09-12",
            "poster_path": "/j59zDfVJqyTaRg95RH8pZhWcMfl.jpg",
            "genre_ids": [],
            "original_language": "en",
            "backdrop_path": "/caULWzQxhBfKYioXaowtBXy5nnq.jpg",
            "overview": "Higglytown Heroes is a children's television series currently airing on the Disney Junior portion of the Disney Channel, or, on some cable networks, the Playhouse Disney channel. The theme song of the show, Here in Higglytown, is performed by They Might Be Giants. Higglytown Heroes returned to Disney Junior on its cable and satellite channel replacing SOAPnet on March 23, 2012.",
            "origin_country": [
                "US"
            ]
        },
        {
            "original_name": "Legion of Super Heroes",
            "id": 4028,
            "name": "Legion of Super Heroes",
            "popularity": 4.601,
            "vote_count": 5,
            "vote_average": 6.6,
            "first_air_date": "2006-09-23",
            "poster_path": "/q5srQZbvVXG1gSU0wbnpQKhJtBJ.jpg",
            "genre_ids": [
                16,
                10759,
                10765
            ],
            "original_language": "en",
            "backdrop_path": "/vpY87j9HZeDlLvrKJLcbn1lOHdf.jpg",
            "overview": "Legion of Super Heroes is an American animated television series produced by Warner Bros. Animation that debuted on September 23, 2006, and is based on characters owned by DC Comics. The series centers on a young Superman's adventures in the 31st century, fighting alongside a group of futuristic superheroes known as the Legion of Super-Heroes. The show was produced by its main designer James Tucker, a co-producer of the Justice League Unlimited series, for the Kids' WB line on The CW network.\n\nThe series drew on the rich history of the Legion of Super-Heroes, taking inspiration from stories set during all time periods of the team's nearly 50-year history in comics. Continuity is internally consistent but is not shared with any previous incarnation of the Legion, either animated or in print. The series was cancelled after its second season.",
            "origin_country": [
                "US"
            ]
        },
        {
            "original_name": "Friends and Heroes",
            "id": 33749,
            "name": "Friends and Heroes",
            "popularity": 1.726,
            "vote_count": 0,
            "vote_average": 0,
            "first_air_date": "2007-03-12",
            "poster_path": "/2aQdgKAMtV6nLmcl0wZDKmWan4w.jpg",
            "genre_ids": [
                10751,
                16,
                10759
            ],
            "original_language": "en",
            "backdrop_path": "/mX1lZquK0IbAzsMGxYeWdugYdIp.jpg",
            "overview": "Friends and Heroes is a Christian children's program that airs on TBN, Smile of a Child TV, and was also shown on BBC TV. The show is both traditionally animated and computer animated. It takes place from 69 - 71 AD. There are three series each of 13 Episodes: Series 1 is set in Alexandria, Egypt; Series 2 in Jerusalem and Series 3 in Rome. The series was created by Brian D. Brown and Eric J. Danenberg, who also worked on The Storykeepers.",
            "origin_country": []
        },
        {
            "original_name": "Invisible Heroes",
            "genre_ids": [
                18,
                10768
            ],
            "name": "Invisible Heroes",
            "popularity": 1.683,
            "origin_country": [
                "CL",
                "FI"
            ],
            "vote_count": 0,
            "first_air_date": "2019-04-21",
            "backdrop_path": "/zIJExAR7tBtIGTEOUXuCgjD0cOE.jpg",
            "original_language": "fi",
            "id": 88688,
            "vote_average": 0,
            "overview": "Invisible Heroes tells the heroic tale of young Finnish diplomats in Chile during 1973’s infamous military coup. Finnish diplomats Tapani Brotherus and Ilkka Jaamala along with Tapani’s wife Lysa Brotherus helped over 2000 left-wing Chileans escape the military junta’s persecution. The Finns acted without official authorization while Swedish ambassador Harald Edelstam was the most visible defendant of human rights with the backing of Sweden’s Prime Minister, Olof Palme.",
            "poster_path": "/y5XskBolz62tW19084JY73zpgRF.jpg"
        },
        {
            "original_name": "Collider Heroes",
            "id": 67108,
            "name": "Collider Heroes",
            "popularity": 0.6,
            "vote_count": 0,
            "vote_average": 0,
            "first_air_date": "2015-03-10",
            "poster_path": "/uhTMC1OcbxWPGKqsXDo9cqBaOsI.jpg",
            "genre_ids": [
                10767
            ],
            "original_language": "en",
            "backdrop_path": null,
            "overview": "Collider's Heroes, hosted by Jon Schnepp, with special guests. We bring you the latest news about the Cinematic World of Heroes and Villains!",
            "origin_country": []
        },
        {
            "original_name": "The Marvel Super Heroes",
            "id": 2164,
            "name": "The Marvel Super Heroes",
            "popularity": 2.094,
            "vote_count": 2,
            "vote_average": 7.8,
            "first_air_date": "1966-09-05",
            "poster_path": "/7deU750ZXTClzSjm43xDMFfgS7s.jpg",
            "genre_ids": [
                16,
                10759,
                10765,
                10762
            ],
            "original_language": "en",
            "backdrop_path": "/vhbMTE6UVbIoyiD262wRYwFiNBa.jpg",
            "overview": "This cartoon series, characterized by extremely limited animation, features five of the most popular super-powered heroes from Marvel Comics: the Incredible Hulk, the Mighty Thor, Captain America, Iron Man, and the Sub-Mariner.",
            "origin_country": [
                "CA",
                "US"
            ]
        },
        {
            "original_name": "Heroes and Villains",
            "genre_ids": [
                99,
                18
            ],
            "name": "Heroes and Villains",
            "popularity": 0.84,
            "origin_country": [
                "GB"
            ],
            "vote_count": 3,
            "first_air_date": "2007-11-11",
            "backdrop_path": "/3xSkdW73AJJrd3QgQHYegzaHbH6.jpg",
            "original_language": "en",
            "id": 7728,
            "vote_average": 7,
            "overview": "Heroes and Villains was a 2007-2008 BBC Television docudrama series looking at key moments in the lives and reputations of some of the greatest warriors of history. Each hour long episode featured a different historical figure, including Napoleon I of France, Attila the Hun, Spartacus, Hernán Cortés, Richard I of England, and Tokugawa Ieyasu. The statements at the beginning of each episode read: \"This film depicts real events and real characters. It is based on the accounts of writers of the time. It has been written with the advice of modern historians.\" In the United States the show is aired on The Military Channel and was called \"Warriors\".",
            "poster_path": "/bTL9cBa8678OHxkBdIDt6gmziWE.jpg"
        },
        {
            "original_name": "Rescue Heroes",
            "id": 45054,
            "name": "Rescue Heroes",
            "popularity": 0.68,
            "vote_count": 1,
            "vote_average": 0.5,
            "first_air_date": "1999-10-02",
            "poster_path": null,
            "genre_ids": [
                16
            ],
            "original_language": "en",
            "backdrop_path": null,
            "overview": "Rescue Heroes is a Canadian/American animated children's television series produced by Nelvana, CBC and CBS. Based on the 1995 Fisher Price toy line of the same name, the series tracks the adventures of a team of globetrotting emergency responders who save people from a variety of disasters. Rescue Heroes stars Norm Spencer as Billy Blazes, Lenore Zann as Wendy Waters and Martin Roach as Rocky Canyon.\n\nThree seasons of Rescue Heroes were produced and aired from 1999 until 2002. YTV aired the series as a feature of their \"Playtime\" block, and re-runs of the series were aired internationally. In 2003, Nelvana released Rescue Heroes: The Movie.",
            "origin_country": [
                "CA",
                "US",
                "CN"
            ]
        },
        {
            "original_name": "Unexpected Heroes",
            "id": 89973,
            "name": "Unexpected Heroes",
            "popularity": 0.6,
            "vote_count": 0,
            "vote_average": 0,
            "first_air_date": "2017-12-18",
            "poster_path": "/zWetqXJMdrQ4EfB4mz91yBUSaI6.jpg",
            "genre_ids": [
                35,
                10765
            ],
            "original_language": "ko",
            "backdrop_path": "/nv08TnaVjIK6rm3sVVoFhWBER1I.jpg",
            "overview": "“Unexpected Heroes” is a fantasy web drama that tells the story of three high school students who receive super powers after their respective organ transplants and then use their powers to solve suspicious cases. It is being supported by the Center for Disease Control Organ Transplant Management Center to raise awareness for organ and human tissue donations.",
            "origin_country": [
                "KR"
            ]
        },
        {
            "original_name": "Unlikely Heroes",
            "genre_ids": [],
            "name": "Unlikely Heroes",
            "popularity": 0.6,
            "origin_country": [
                "CA"
            ],
            "vote_count": 0,
            "first_air_date": "2013-11-04",
            "backdrop_path": null,
            "original_language": "en",
            "id": 93201,
            "vote_average": 0,
            "overview": "A ragtag team of teens takes on cryptic puzzles, deadly traps and a medieval steam-punk civilization during one action-packed summer day.",
            "poster_path": null
        },
        {
            "original_name": "Heroes Unmasked",
            "id": 6819,
            "name": "Heroes Unmasked",
            "popularity": 1.4,
            "vote_count": 0,
            "vote_average": 0,
            "first_air_date": "2007-07-25",
            "poster_path": "/5zxqQDwvupilcv9THdqyeMzpc8i.jpg",
            "genre_ids": [
                99
            ],
            "original_language": "en",
            "backdrop_path": "/m8Q18Os1haSItIKp2LC929JsOyk.jpg",
            "overview": "Heroes Unmasked is a behind-the-scenes documentary television series of the American television series Heroes, made by the BBC and narrated by Anthony Head in series 1–2, and in series 3 by former Heroes actor Santiago Cabrera. The show aired after an episode was shown on BBC Two.",
            "origin_country": [
                "GB"
            ]
        },
        {
            "original_name": "Local Heroes",
            "id": 24586,
            "name": "Local Heroes",
            "popularity": 0.845,
            "vote_count": 0,
            "vote_average": 0,
            "first_air_date": "1996-03-17",
            "poster_path": null,
            "genre_ids": [],
            "original_language": "en",
            "backdrop_path": null,
            "overview": "",
            "origin_country": [
                "US"
            ]
        },
        {
            "original_name": "Héroes",
            "id": 5365,
            "name": "Héroes",
            "popularity": 0.6,
            "vote_count": 0,
            "vote_average": 0,
            "first_air_date": "2007-03-25",
            "poster_path": null,
            "genre_ids": [
                18,
                10768
            ],
            "original_language": "es",
            "backdrop_path": null,
            "overview": "Héroes is a Chilean TV miniseries produced by Canal 13 in 2007.\n\nEach episode relates the history of one of the principal figures of Chile in the 19th century: Bernardo O'Higgins, José Miguel Carrera, Manuel Rodríguez, Diego Portales, José Manuel Balmaceda and Arturo Prat. The miniseries is one of the most ambitious project of Canal 13 for the commemoration of the bicentenary of the independence of Chile, in 2010.\n\nThe miniseries has the support of the Ministry of Education and the Chilean Army.",
            "origin_country": [
                "CL"
            ]
        }
    ]
}
